{
  "total": 13055,
  "{'data': {'Intervention': {'ObservationECTS': ['Unknown field.'], 'ObservationMotifAlerte': ['Unknown field.'], 'ObservationAdresse': ['Unknown field.'], 'ObservationMMA': ['Unknown field.'], 'RenseignementComplementaire': ['Unknown field.']}}}": 12151.0,
  "{'data': {'Intervention': ['Field may not be null.']}}": 69.0,
  "{'data': {'OdeResume': {'Adresse': ['Field may not be null.']}}}": 18.0,
  "{'data': {'Intervention': ['Field may not be null.'], 'OdeResume': {'Adresse': ['Field may not be null.']}}}": 16.0,
  "{'data': {'Intervention': ['Field may not be null.'], 'OdeResume': {'Cstc': {'Libelle': ['Must be one of: ... ]}}}}": 3.0,
  "{'data': {'Intervention': ['Field may not be null.'], 'OdeResume': {'Adresse': {'TypeInfrastructure': ['Field may not be null.'], 'CategorieFonctionnelle': ['Field may not be null.']}}}}": 6.0
}
